Product-Level Profitability & Revenue Optimization Analysis
…
This section summarizes revenue and profitability across product categories.

category_kpis <- master_orders_clean %>%
  group_by(product_category_name) %>%
  summarise(
    total_revenue = sum(revenue, na.rm = TRUE),
    total_profit = sum(gross_profit, na.rm = TRUE),
    avg_margin = mean(margin_pct, na.rm = TRUE),
    total_orders = n()
  ) %>%
  arrange(desc(total_profit))

category_kpis

# A tibble: 73 × 5
   product_category_name  total_revenue total_profit avg_margin total_orders
   <chr>                          <dbl>        <dbl>      <dbl>        <int>
 1 relogios_presentes          1166177.      310006.    0.179           5859
 2 beleza_saude                1233132.      252638.    0.0488          9465
 3 esporte_lazer                954853.      170794.    0.0564          8431
 4 informatica_acessorios       888725.      167054.    0.0551          7644
 5 cama_mesa_banho             1023435.      156428.    0.0659         10953
 6 cool_stuff                   610204.      132095.    0.130           3718
 7 automotivo                   578967.      112150.    0.0181          4140
 8 brinquedos                   471286.       89176.    0.0849          4030
 9 perfumaria                   390145.       83524.    0.0780          3340
10 moveis_decoracao             711928.       80772.    0.00407         8160
# ℹ 63 more rows
…
4.6 Pareto Analysis

This analysis examines how profit is concentrated across categories.

pareto <- category_kpis %>%
  mutate(
    profit_share = total_profit / sum(total_profit),
    cumulative_profit = cumsum(profit_share)
  )

pareto

# A tibble: 73 × 7
   product_category_name  total_revenue total_profit avg_margin total_orders
   <chr>                          <dbl>        <dbl>      <dbl>        <int>
 1 relogios_presentes          1166177.      310006.    0.179           5859
 2 beleza_saude                1233132.      252638.    0.0488          9465
 3 esporte_lazer                954853.      170794.    0.0564          8431
 4 informatica_acessorios       888725.      167054.    0.0551          7644
 5 cama_mesa_banho             1023435.      156428.    0.0659         10953
 6 cool_stuff                   610204.      132095.    0.130           3718
 7 automotivo                   578967.      112150.    0.0181          4140
 8 brinquedos                   471286.       89176.    0.0849          4030
 9 perfumaria                   390145.       83524.    0.0780          3340
10 moveis_decoracao             711928.       80772.    0.00407         8160
# ℹ 63 more rows
# ℹ 2 more variables: profit_share <dbl>, cumulative_profit <dbl>
…
